…
print(boot_results)
```

    ## # A tibble: 10,000 × 3
    ##    .id   term      estimate
    ##    <chr> <chr>        <dbl>
    ##  1 0001  r.squared  0.948  
    ##  2 0001  beta_prod -0.00773
    ##  3 0002  r.squared  0.940  
    ##  4 0002  beta_prod -0.00730
    ##  5 0003  r.squared  0.942  
    ##  6 0003  beta_prod -0.00499
    ##  7 0004  r.squared  0.940  
    ##  8 0004  beta_prod -0.00536
    ##  9 0005  r.squared  0.939  
    ## 10 0005  beta_prod -0.00684
    ## # ℹ 9,990 more rows
…
